{
  "meta": {
    "unremovable": [
      1
    ],
    "types": [
      [
        1,
        "public_holiday"
      ],
      [
        3,
        "day_off"
      ],
      [
        4,
        "birthday"
      ],
      [
        8,
        "meeting"
      ],
      [
        16,
        "other"
      ]
    ]
  },
  "events": [
    {
      "id": 211,
      "starts_at": "2018-03-08",
      "ends_at": "2018-03-08",
      "memo": "Международный женский день",
      "type": 3
    },
    {
      "id": 212,
      "starts_at": "2018-10-07",
      "ends_at": "2018-10-07",
      "memo": "День учителя",
      "type": 1
    },
    {
      "id": 213,
      "starts_at": "2018-10-14",
      "ends_at": "2018-10-14",
      "memo": "День защитника Украины",
      "type": 3
    },
    {
      "id": 214,
      "starts_at": "2018-10-18T14:00:00Z",
      "ends_at": "2018-10-18T15:00:00Z",
      "memo": "Созвон с Киевом",
      "type": 8
    },
    {
      "id": 215,
      "starts_at": "2018-10-18T09:00:00Z",
      "ends_at": "2018-10-18T13:15:00Z",
      "memo": "Велопрогулка",
      "type": 16
    },
    {
      "id": 216,
      "starts_at": "2018-10-22",
      "ends_at": "2018-10-22",
      "memo": "Гуляем в парке",
      "type": 16
    },
    {
      "id": 217,
      "starts_at": "2018-10-28",
      "ends_at": "2018-11-03",
      "memo": "Конференция",
      "type": 18
    },
    {
      "id": 218,
      "starts_at": "2018-11-03T21:43:00Z",
      "ends_at": "2018-11-03T21:43:00Z",
      "memo": "Самолёт домой",
      "type": 16
    },
    {
      "id": 219,
      "starts_at": "2018-11-01",
      "ends_at": "2018-11-01",
      "memo": "ДР",
      "type": 4
    }
  ]
}
